GPT 통계 - 8 유보드
…
uboat_raw |> 
  arrange(desc(ships_sunk)) |> 
  select(name, type, fate_type, ships_sunk)

# A tibble: 1,153 × 4
   name  type  fate_type      ships_sunk
   <chr> <chr> <chr>               <dbl>
 1 U-37  IX    Scuttled               53
 2 U-48  VIIB  Decommissioned         51
 3 U-124 IXB   Sunk                   46
 4 U-103 IXB   Decommissioned         45
 5 U-123 IXB   Decommissioned         42
 6 U-107 IXB   Sunk                   37
 7 U-38  IX    Scuttled               35
 8 U-99  VIIB  Scuttled               35
 9 U-66  IXC   Sunk                   33
10 U-68  IXC   Sunk                   32
# ℹ 1,143 more rows

uboat_raw

# A tibble: 1,153 × 15
      id name  type  ordered   laid_down commissioned launched  fate   fate_type
   <dbl> <chr> <chr> <chr>     <chr>     <chr>        <chr>     <chr>  <chr>    
 1     1 U-1   IIA   2/2/1935  2/11/1935 6/29/1935    6/15/1935 4/6/1… Sunk     
 2     2 U-2   IIA   2/2/1935  2/11/1935 7/25/1935    7/1/1935  4/8/1… Sunk     
 3     3 U-3   IIA   2/2/1935  2/11/1935 8/6/1935     7/19/1935 8/1/1… Decommis…
 4     4 U-4   IIA   2/2/1935  2/11/1935 8/17/1935    7/31/1935 7/31/… Decommis…
 5     5 U-5   IIA   2/2/1935  2/11/1935 8/31/1935    8/14/1935 3/19/… Sunk     
 6     6 U-6   IIA   2/2/1935  2/11/1935 9/7/1935     8/21/1935 8/7/1… Decommis…
 7     7 U-7   IIB   7/20/1934 3/11/1935 7/18/1935    6/29/1935 2/18/… Sunk     
 8     8 U-8   IIB   7/20/1934 3/25/1935 8/5/1935     7/16/1935 3/31/… Decommis…
 9     9 U-9   IIB   7/20/1934 4/8/1935  8/21/1935    7/30/1935 8/20/… Sunk     
10    10 U-10  IIB   7/20/1934 4/22/1935 9/9/1935     8/13/1935 8/1/1… Decommis…
# ℹ 1,143 more rows
# ℹ 6 more variables: fate_survivors <dbl>, fate_lat <chr>, fat_lon <chr>,
#   fate_dead <dbl>, shipyard <chr>, ships_sunk <dbl>

8.2 목표 데이터

download.file(url = "https://raw.githubusercontent.com/kadenhendron/uboat-data/master/data/uboat-target-data.csv", 
              destfile = "data/uboat-target-data.csv", model = "w")

library(tidyverse)
library(gt)

target_raw <- read_csv("data/uboat-target-data.csv")

target_raw |> 
  count(nationality, sort = TRUE)

# A tibble: 47 × 2
   nationality     n
   <chr>       <int>
 1 British      1655
 2 American      549
 3 Norwegian     311
 4 Dutch         137
 5 Greek         122
 6 Soviet        106
 7 Swedish        89
 8 Panamanian     81
 9 Canadian       66
10 French         44
# ℹ 37 more rows
…
